R VE KUŞLAR - eBird VERİLERİNİN R İLE ANALİZİ I – R DELİSİ
…
2. KUŞ VERİSİNİN YÜKLENİP BU YAZI İÇİN GEREKLİ OLAN ALT KÜMESİNİN ALINMASI

Yazımızdaki ilk soruya cevap verebilmek için iki temel veriye ihtiyacımız var. Bunlar kuş ve Türkiye’nin il sınırları verileri.

Kuş verisini eBird veri tabanından alacağız. eBird, Türkiye ve dünyadaki en kapsamlı kuş gözlem veri tabanı. Kuş gözlemcileri araziye çıktıklarında gözlemledikleri kuşları bu veri tabanına kaydediyor, bu şekilde bilime ve doğa korumaya katkı sağlayabiliyorlar.

eBird verilerini siteye üye olduktan sonra, en altta, Bilim başlığı altındaki Veri indirme talebi sayfasından ya da {rebird} paketini kullanarak indirebilirsiniz. Ben, site üzerinden tüm Türkiye verilerini indirdim.

İlk adım olarak indirdiğimiz eBird verisini R’a yükleyelim. Bu veri txt formatında olduğu için, {tidyverse} paket grubuna ait read_delim() fonksiyonunu kullandık. Base R’daki read.table() fonksiyonu da bu iş için kullanılabilir. Veri biraz büyük olduğundan yüklenmesi ve işlenmesi biraz zaman alabilir.

ebird <- read_delim("./ebird/ebd_TR_relApr-2023.txt")

print(ebird)

# A tibble: 2,403,720 × 50
   `GLOBAL UNIQUE IDENTIFIER`     `LAST EDITED DATE`  `TAXONOMIC ORDER` CATEGORY
   <chr>                          <dttm>                          <dbl> <chr>   
 1 URN:CornellLabOfOrnithology:E… 2021-04-15 12:59:44             10043 species 
 2 URN:CornellLabOfOrnithology:E… 2021-04-15 12:58:56              5625 species 
 3 URN:CornellLabOfOrnithology:E… 2021-04-15 13:04:32              1361 species 
 4 URN:CornellLabOfOrnithology:E… 2021-04-14 00:03:13             22215 species 
 5 URN:CornellLabOfOrnithology:E… 2021-04-05 11:01:32              5787 species 
 6 URN:CornellLabOfOrnithology:E… 2021-04-21 02:26:13             29239 species 
 7 URN:CornellLabOfOrnithology:E… 2021-04-14 00:03:35             22156 species 
 8 URN:CornellLabOfOrnithology:E… 2021-04-05 11:01:32               291 species 
 9 URN:CornellLabOfOrnithology:E… 2018-09-20 02:46:53              5945 species 
10 URN:CornellLabOfOrnithology:E… 2018-09-20 02:46:53              5945 species 
# ℹ 2,403,710 more rows
# ℹ 46 more variables: `TAXON CONCEPT ID` <chr>, `COMMON NAME` <chr>,
#   `SCIENTIFIC NAME` <chr>, `SUBSPECIES COMMON NAME` <chr>,
#   `SUBSPECIES SCIENTIFIC NAME` <chr>, `EXOTIC CODE` <chr>,
#   `OBSERVATION COUNT` <chr>, `BREEDING CODE` <chr>,
#   `BREEDING CATEGORY` <chr>, `BEHAVIOR CODE` <chr>, `AGE/SEX` <chr>,
#   COUNTRY <chr>, `COUNTRY CODE` <chr>, STATE <chr>, `STATE CODE` <chr>, …
…
Bu fonksiyon sayesinde sütunları çok daha rahat bir şekilde görebiliyoruz. Gördüğünüz gibi bu yazı için işimize yaramayacak olan bir sürü sütun var. Kalabalıkta kaybolmamak için yalnızca işimize yarayabilecek sütunları seçelim. Ardından da sadece tür kaydı olan gözlemleri seçmek için species’e göre filtreleyelim.

ebird_subset <- ebird |>
  select(4, 6, 7, 11, 12, 18, 29, 30) |>  # burada indeks kullanarak sectik, sutun isimleriyle de secebiliriz
  filter(CATEGORY == "species")
ebird_subset

# A tibble: 2,298,920 × 8
   CATEGORY `COMMON NAME`  `SCIENTIFIC NAME` `OBSERVATION COUNT` `BREEDING CODE`
   <chr>    <chr>          <chr>             <chr>               <chr>          
 1 species  Indian Roller  Coracias benghal… 1                   <NA>           
 2 species  Siberian Crane Leucogeranus leu… X                   <NA>           
 3 species  Black Grouse   Lyrurus tetrix    X                   <NA>           
 4 species  White-winged … Alauda leucoptera 1                   <NA>           
 5 species  White-tailed … Vanellus leucurus 2                   <NA>           
 6 species  Mourning Whea… Oenanthe lugens   1                   <NA>           
 7 species  Black Lark     Melanocorypha ye… 1                   <NA>           
 8 species  Brant          Branta bernicla   1                   <NA>           
 9 species  Slender-bille… Numenius tenuiro… 2                   <NA>           
10 species  Slender-bille… Numenius tenuiro… 1                   <NA>           
# ℹ 2,298,910 more rows
# ℹ 3 more variables: STATE <chr>, LATITUDE <dbl>, LONGITUDE <dbl>
…
Kuş verisinin ihtiyacımız olan alt kümesini aldıktan sonra sıra geldi verimizi mekânsallaştırmaya. Verimizi, uygun mekânsal veri tipine dönüştürüp, mekânsal analizlerde kullanılabilecek bir hâle getireceğiz. Bunun için, R’da mekânsal vektör verileri işlemek için geliştirilen {sf} paketini kullanacağız.

Lat long verisini ve koordinat sistemini tanımlayarak eBird verisini sf objesine dönüştürelim.

ebird_sf <- st_as_sf(
    ebird_subset, coords = c("LONGITUDE", "LATITUDE"), crs = "EPSG:4326"
)
ebird_sf

Simple feature collection with 2298920 features and 6 fields
Geometry type: POINT
Dimension:     XY
Bounding box:  xmin: 25.78258 ymin: 34.58944 xmax: 44.78608 ymax: 42.93267
Geodetic CRS:  WGS 84
# A tibble: 2,298,920 × 7
   CATEGORY `COMMON NAME`  `SCIENTIFIC NAME` `OBSERVATION COUNT` `BREEDING CODE`
 * <chr>    <chr>          <chr>             <chr>               <chr>          
 1 species  Indian Roller  Coracias benghal… 1                   <NA>           
 2 species  Siberian Crane Leucogeranus leu… X                   <NA>           
 3 species  Black Grouse   Lyrurus tetrix    X                   <NA>           
 4 species  White-winged … Alauda leucoptera 1                   <NA>           
 5 species  White-tailed … Vanellus leucurus 2                   <NA>           
 6 species  Mourning Whea… Oenanthe lugens   1                   <NA>           
 7 species  Black Lark     Melanocorypha ye… 1                   <NA>           
 8 species  Brant          Branta bernicla   1                   <NA>           
 9 species  Slender-bille… Numenius tenuiro… 2                   <NA>           
10 species  Slender-bille… Numenius tenuiro… 1                   <NA>           
# ℹ 2,298,910 more rows
# ℹ 2 more variables: STATE <chr>, geometry <POINT [°]>
…
5. KUŞ VERİSİNİN GRUPLANIP ÖZETLENMESİ

Biraz oyalanmanın ardından tekrardan sorumuza odaklanabiliriz. Öncelikle Türkiye’deki kuş türlerini ve her türden kaç adet kayıt olduğunu görmek için kuş verisini tür ismine göre gruplayıp, kayıt sayısına göre özetleyelim. Bu işlem biraz uzun sürebilir.

ebird_grouped <- ebird_sf |>
  group_by(`SCIENTIFIC NAME`) |>
  summarise(n = n())
print(ebird_grouped)

Simple feature collection with 503 features and 2 fields
Geometry type: GEOMETRY
Dimension:     XY
Bounding box:  xmin: 25.78258 ymin: 34.58944 xmax: 44.78608 ymax: 42.93267
Geodetic CRS:  WGS 84
# A tibble: 503 × 3
   `SCIENTIFIC NAME`             n                                      geometry
   <chr>                     <int>                                <GEOMETRY [°]>
 1 Acanthis flammea              1                     POINT (32.87976 39.96636)
 2 Accipiter badius              3 MULTIPOINT ((41.23051 37.10523), (39.85856 4…
 3 Accipiter brevipes         2157 MULTIPOINT ((26.218 40.00467), (26.20626 40.…
 4 Accipiter gentilis         1617 MULTIPOINT ((26.16617 39.819), (26.20626 40.…
 5 Accipiter nisus           17281 MULTIPOINT ((26.01417 39.80894), (25.89106 4…
 6 Acridotheres tristis        792 MULTIPOINT ((28.56435 41.1764), (28.61338 40…
 7 Acrocephalus agricola       355 MULTIPOINT ((42.41 38.7), (42.42388 38.70286…
 8 Acrocephalus arundinaceus  6899 MULTIPOINT ((25.89106 40.15504), (26.16617 3…
 9 Acrocephalus dumetorum       25 MULTIPOINT ((35.95475 36.06548), (39.72347 4…
10 Acrocephalus griseldis        1                       POINT (43.578 40.11865)
# ℹ 493 more rows
…
