R Delisi - R ve Kuşlar - eBird Verilerinin R ile Analizi II
…
Kara akbaba. Kaynak: Johann Andreas Naumann’s … Naturgeschichte der Vögel Deutschlands… | Leipzig, G. Fleischer, 1820-1860

Kara akbaba - Aegypius monachus, Avrasya’da geniş dağılıma sahip bir yırtıcı türü. 3 metreye varan kanat açıklığıyla en büyük kuşlardan birisi ve azalan bir popülasyona sahip. Türkiye, türün en önemli yaşam alanlarından birisi. Tür, özellikle Kuzey Anadolu’da, orman - bozkır geçişindeki yaşlı ormanları tercih ediyor. Bu alanlardan birisi de bu yazıda incelediğimiz yer olan Kızılcahamam. Kızılcahamam’ın yaşlı karaçam - Pinus nigra ormanları, türün üremesi için oldukça elverişli.

Türle alakalı kısa bir bilgi verdikten sonra verilere tekrardan dönebiliriz. Kuş verisini nasıl elde ettiğimize ilk yazıda değinmiştik. Tekrardan uzun uzun anlatmaya gerek yok.

Öncelikle kuş verimizi R’a yükleyelim:

ebird <- read_delim("./ebird/ebd_TR_relApr-2023.txt")

print(ebird)

# A tibble: 2,403,720 × 50
   `GLOBAL UNIQUE IDENTIFIER`     `LAST EDITED DATE`  `TAXONOMIC ORDER` CATEGORY
   <chr>                          <dttm>                          <dbl> <chr>   
 1 URN:CornellLabOfOrnithology:E… 2021-04-15 12:59:44             10043 species 
 2 URN:CornellLabOfOrnithology:E… 2021-04-15 12:58:56              5625 species 
 3 URN:CornellLabOfOrnithology:E… 2021-04-15 13:04:32              1361 species 
 4 URN:CornellLabOfOrnithology:E… 2021-04-14 00:03:13             22215 species 
 5 URN:CornellLabOfOrnithology:E… 2021-04-05 11:01:32              5787 species 
 6 URN:CornellLabOfOrnithology:E… 2021-04-21 02:26:13             29239 species 
 7 URN:CornellLabOfOrnithology:E… 2021-04-14 00:03:35             22156 species 
 8 URN:CornellLabOfOrnithology:E… 2021-04-05 11:01:32               291 species 
 9 URN:CornellLabOfOrnithology:E… 2018-09-20 02:46:53              5945 species 
10 URN:CornellLabOfOrnithology:E… 2018-09-20 02:46:53              5945 species 
# ℹ 2,403,710 more rows
# ℹ 46 more variables: `TAXON CONCEPT ID` <chr>, `COMMON NAME` <chr>,
#   `SCIENTIFIC NAME` <chr>, `SUBSPECIES COMMON NAME` <chr>,
#   `SUBSPECIES SCIENTIFIC NAME` <chr>, `EXOTIC CODE` <chr>,
#   `OBSERVATION COUNT` <chr>, `BREEDING CODE` <chr>,
#   `BREEDING CATEGORY` <chr>, `BEHAVIOR CODE` <chr>, `AGE/SEX` <chr>,
#   COUNTRY <chr>, `COUNTRY CODE` <chr>, STATE <chr>, `STATE CODE` <chr>, …

Gördüğünüz gibi 2,403,720 gözlem (satır) ve 50 değişkene (sütun) sahip bir veri tablomuz var. Bu verilerin çoğuna ihtiyaç duymuyoruz. Dolayısıyla işimize yaramayanlardan kurtulmamız işimizi çokça kolaylaştıracaktır. Sadece işimize yarayan sütunları seçip, kara akbaba türüne ait gözlemleri içerecek şekilde filtreleyelim.

karaakbaba <- ebird |>
  select(6, 7, 11, 12, 29, 30) |>  # burada indeks kullanarak sectik, sutun isimleriyle de secebiliriz
  filter(`SCIENTIFIC NAME` == "Aegypius monachus")
karaakbaba

# A tibble: 1,910 × 6
   `COMMON NAME`  `SCIENTIFIC NAME` `OBSERVATION COUNT` `BREEDING CODE` LATITUDE
   <chr>          <chr>             <chr>               <chr>              <dbl>
 1 Cinereous Vul… Aegypius monachus 1                   <NA>                40.5
 2 Cinereous Vul… Aegypius monachus 5                   <NA>                40.5
 3 Cinereous Vul… Aegypius monachus 1                   <NA>                40.0
 4 Cinereous Vul… Aegypius monachus 3                   <NA>                40.5
 5 Cinereous Vul… Aegypius monachus 1                   <NA>                40.5
 6 Cinereous Vul… Aegypius monachus 1                   <NA>                40.5
 7 Cinereous Vul… Aegypius monachus 2                   <NA>                40.5
 8 Cinereous Vul… Aegypius monachus 2                   <NA>                40.5
 9 Cinereous Vul… Aegypius monachus 1                   <NA>                40.5
10 Cinereous Vul… Aegypius monachus 2                   <NA>                40.5
# ℹ 1,900 more rows
# ℹ 1 more variable: LONGITUDE <dbl>
…
Şimdi de mekânsallaştırmaya geçebiliriz. Verimiz şu anda bir data frame. Dolayısıyla onunla mekânsal işler yapmak için verimizi mekânsallaştırmamız gerekiyor. Bunun için {sf} paketini kullanacağız. Bu paket, mekânsal vektör veriler işlemek için geliştirmiş, OGC (Open Geospatial Consortium) standardı bir paket. Ben de işlerimin büyük bir kısmında onu tercih ediyorum.

Koordinatların olduğu sütunları ve koordinat sistemini tanımlayarak verimizi sf objesine dönüştürelim.

karaakbaba_sf <- st_as_sf(
  karaakbaba, coords = c("x", "y"), crs = "EPSG:4326"
)
karaakbaba_sf

Simple feature collection with 1910 features and 4 fields
Geometry type: POINT
Dimension:     XY
Bounding box:  xmin: 26.50652 ymin: 36.02635 xmax: 44.5648 ymax: 42.0362
Geodetic CRS:  WGS 84
# A tibble: 1,910 × 5
   eng_name          sci_name  obs_count breeding_code            geometry
 * <chr>             <chr>     <chr>     <chr>                 <POINT [°]>
 1 Cinereous Vulture Aegypius… 1         <NA>          (32.62995 40.46758)
 2 Cinereous Vulture Aegypius… 5         <NA>          (32.62995 40.46758)
 3 Cinereous Vulture Aegypius… 1         <NA>          (34.61423 40.01914)
 4 Cinereous Vulture Aegypius… 3         <NA>          (32.62995 40.46758)
 5 Cinereous Vulture Aegypius… 1         <NA>           (32.6622 40.48013)
 6 Cinereous Vulture Aegypius… 1         <NA>           (32.62403 40.4557)
 7 Cinereous Vulture Aegypius… 2         <NA>           (32.62403 40.4557)
 8 Cinereous Vulture Aegypius… 2         <NA>           (32.62403 40.4557)
 9 Cinereous Vulture Aegypius… 1         <NA>           (32.62403 40.4557)
10 Cinereous Vulture Aegypius… 2         <NA>           (32.62403 40.4557)
# ℹ 1,900 more rows
…
mapview(karaakbaba_sf)

Bu işlem de tamam. Gördüğünüz gibi ülkemizin kuzeyinde yoğunlaşan bir popülasyon mevcut.

Sıra geldi kuş verimizin Kızılcahamam’a göre alt kümesini almaya.

karaakbaba_subset <- karaakbaba_sf[khamam, ]
karaakbaba_subset

Simple feature collection with 139 features and 4 fields
Geometry type: POINT
Dimension:     XY
Bounding box:  xmin: 32.29039 ymin: 40.24768 xmax: 32.8661 ymax: 40.64056
Geodetic CRS:  WGS 84
# A tibble: 139 × 5
   eng_name          sci_name  obs_count breeding_code            geometry
   <chr>             <chr>     <chr>     <chr>                 <POINT [°]>
 1 Cinereous Vulture Aegypius… 1         <NA>          (32.62995 40.46758)
 2 Cinereous Vulture Aegypius… 5         <NA>          (32.62995 40.46758)
 3 Cinereous Vulture Aegypius… 3         <NA>          (32.62995 40.46758)
 4 Cinereous Vulture Aegypius… 1         <NA>           (32.6622 40.48013)
 5 Cinereous Vulture Aegypius… 1         <NA>           (32.62403 40.4557)
 6 Cinereous Vulture Aegypius… 2         <NA>           (32.62403 40.4557)
 7 Cinereous Vulture Aegypius… 2         <NA>           (32.62403 40.4557)
 8 Cinereous Vulture Aegypius… 1         <NA>           (32.62403 40.4557)
 9 Cinereous Vulture Aegypius… 2         <NA>           (32.62403 40.4557)
10 Cinereous Vulture Aegypius… 2         <NA>           (32.62403 40.4557)
# ℹ 129 more rows
…
