PENGUINS VERİSİ İLE DPLYR’YE GİRİŞ – R DELİSİ
…
Gördüğünüz gibi birçok satır ve sütundan oluşan bir veri tablosu. Öncesinde R konsolunun kaç tane değer yazdıracağını ayarlamadıysanız veriyi bu şekilde çağırmak, tüm veri tablosunu konsola yazdıracaktır. Bu durum, büyük veri tablolarında istenmeyen bir durum. Bundan kaçınmak için önceki yazıda bahsettiğim gibi head() ve tail() fonksiyonlarını kullanabilirsiniz ancak ben bu sefer veriyi, bir tür data.frame yapısı olan tibble’ye dönüştüreceğim. tidyverse ile çalışırken tibble kullanmak daha rahat hissettiriyor.

peng <- as_tibble(penguins)
peng

# A tibble: 344 × 8
   species island    bill_len bill_dep flipper_len body_mass sex     year
   <fct>   <fct>        <dbl>    <dbl>       <int>     <int> <fct>  <int>
 1 Adelie  Torgersen     39.1     18.7         181      3750 male    2007
 2 Adelie  Torgersen     39.5     17.4         186      3800 female  2007
 3 Adelie  Torgersen     40.3     18           195      3250 female  2007
 4 Adelie  Torgersen     NA       NA            NA        NA <NA>    2007
 5 Adelie  Torgersen     36.7     19.3         193      3450 female  2007
 6 Adelie  Torgersen     39.3     20.6         190      3650 male    2007
 7 Adelie  Torgersen     38.9     17.8         181      3625 female  2007
 8 Adelie  Torgersen     39.2     19.6         195      4675 male    2007
 9 Adelie  Torgersen     34.1     18.1         193      3475 <NA>    2007
10 Adelie  Torgersen     42       20.2         190      4250 <NA>    2007
# ℹ 334 more rows
…
Öncelikle tibble’ye çevirelim.

raw <- as_tibble(penguins_raw)
raw

# A tibble: 344 × 17
   studyName `Sample Number` Species         Region Island Stage `Individual ID`
   <chr>               <dbl> <chr>           <chr>  <chr>  <chr> <chr>          
 1 PAL0708                 1 Adelie Penguin… Anvers Torge… Adul… N1A1           
 2 PAL0708                 2 Adelie Penguin… Anvers Torge… Adul… N1A2           
 3 PAL0708                 3 Adelie Penguin… Anvers Torge… Adul… N2A1           
 4 PAL0708                 4 Adelie Penguin… Anvers Torge… Adul… N2A2           
 5 PAL0708                 5 Adelie Penguin… Anvers Torge… Adul… N3A1           
 6 PAL0708                 6 Adelie Penguin… Anvers Torge… Adul… N3A2           
 7 PAL0708                 7 Adelie Penguin… Anvers Torge… Adul… N4A1           
 8 PAL0708                 8 Adelie Penguin… Anvers Torge… Adul… N4A2           
 9 PAL0708                 9 Adelie Penguin… Anvers Torge… Adul… N5A1           
10 PAL0708                10 Adelie Penguin… Anvers Torge… Adul… N5A2           
# ℹ 334 more rows
# ℹ 10 more variables: `Clutch Completion` <chr>, `Date Egg` <date>,
#   `Culmen Length (mm)` <dbl>, `Culmen Depth (mm)` <dbl>,
#   `Flipper Length (mm)` <dbl>, `Body Mass (g)` <dbl>, Sex <chr>,
#   `Delta 15 N (o/oo)` <dbl>, `Delta 13 C (o/oo)` <dbl>, Comments <chr>
…
SÜTUN İŞLEMLERİ

Bu kısımda temel olarak select(), mutate(), rename() ve relocate() fonksiyonunu kullanacağız.

penguins verisi 8 değişkenden oluşuyordu ancak penguins_raw verisi 17 değişkenden oluşuyor.

Öncelikle penguins’te olan değişkenlerin bizim için önemli olduğunu varsayalım ve onları seçelim.

dat <- raw |> 
    select(c("Species", "Island", "Date Egg", "Culmen Length (mm)", 
             "Culmen Depth (mm)", "Flipper Length (mm)", 
             "Body Mass (g)", "Sex"))
dat

# A tibble: 344 × 8
   Species            Island `Date Egg` `Culmen Length (mm)` `Culmen Depth (mm)`
   <chr>              <chr>  <date>                    <dbl>               <dbl>
 1 Adelie Penguin (P… Torge… 2007-11-11                 39.1                18.7
 2 Adelie Penguin (P… Torge… 2007-11-11                 39.5                17.4
 3 Adelie Penguin (P… Torge… 2007-11-16                 40.3                18  
 4 Adelie Penguin (P… Torge… 2007-11-16                 NA                  NA  
 5 Adelie Penguin (P… Torge… 2007-11-16                 36.7                19.3
 6 Adelie Penguin (P… Torge… 2007-11-16                 39.3                20.6
 7 Adelie Penguin (P… Torge… 2007-11-15                 38.9                17.8
 8 Adelie Penguin (P… Torge… 2007-11-15                 39.2                19.6
 9 Adelie Penguin (P… Torge… 2007-11-09                 34.1                18.1
10 Adelie Penguin (P… Torge… 2007-11-09                 42                  20.2
# ℹ 334 more rows
# ℹ 3 more variables: `Flipper Length (mm)` <dbl>, `Body Mass (g)` <dbl>,
#   Sex <chr>
…
Şimdi de sütun isimlerini değiştirelim.

camelCase kullanılan isimler, büyük harfle başlayan isimler, birimler, boşluklar derken standart olmayan birçok şey var. Buradaki isimleri, orijinal veriye sadık kalarak değiştireceğiz.

Biraz adlandırma stillerinden bahsetmek gerekirse; ben, zaman zaman tidy style guide’da belirtildiği gibi snake_case kullanmayı tercih ediyorum. Zaman zamansa camelCase. Bunun tek bir doğrusu yok, önemli olan okunaklı, tutarlı ve kolay hata ayıklanabilen kodlar yazmak. R için çok sayıda style guide mevcut. Şuradaki linkleri incelemenizi öneririm; Google, tidy, bioconductor, Norm Matloff.

dat |> 
    setNames(c("species", "island", "year", "bill_len", "bill_dep", 
               "flipper_len", "body_mass", "sex"))

# A tibble: 344 × 8
   species       island year       bill_len bill_dep flipper_len body_mass sex  
   <chr>         <chr>  <date>        <dbl>    <dbl>       <dbl>     <dbl> <chr>
 1 Adelie Pengu… Torge… 2007-11-11     39.1     18.7         181      3750 MALE 
 2 Adelie Pengu… Torge… 2007-11-11     39.5     17.4         186      3800 FEMA…
 3 Adelie Pengu… Torge… 2007-11-16     40.3     18           195      3250 FEMA…
 4 Adelie Pengu… Torge… 2007-11-16     NA       NA            NA        NA <NA> 
 5 Adelie Pengu… Torge… 2007-11-16     36.7     19.3         193      3450 FEMA…
 6 Adelie Pengu… Torge… 2007-11-16     39.3     20.6         190      3650 MALE 
 7 Adelie Pengu… Torge… 2007-11-15     38.9     17.8         181      3625 FEMA…
 8 Adelie Pengu… Torge… 2007-11-15     39.2     19.6         195      4675 MALE 
 9 Adelie Pengu… Torge… 2007-11-09     34.1     18.1         193      3475 <NA> 
10 Adelie Pengu… Torge… 2007-11-09     42       20.2         190      4250 <NA> 
# ℹ 334 more rows
Sütun isimlerini, base R’dan gelen setNames() fonksiyonuyla değiştirebileceğimiz gibi, rename() fonksiyonunu kullanarak da değiştirebiliriz. Ardından pipe ile bağlayarak sütunları penguins verisindeki sırayla sıralayalım.

dat <- dat |> 
    rename(species=Species, 
           island=Island, 
           year=`Date Egg`, 
           bill_len=`Culmen Length (mm)`, 
           bill_dep=`Culmen Depth (mm)`, 
           flipper_len=`Flipper Length (mm)`, 
           body_mass=`Body Mass (g)`, 
           sex=Sex) |> 
    relocate(year, .after=sex)
dat

# A tibble: 344 × 8
   species       island bill_len bill_dep flipper_len body_mass sex   year      
   <chr>         <chr>     <dbl>    <dbl>       <dbl>     <dbl> <chr> <date>    
 1 Adelie Pengu… Torge…     39.1     18.7         181      3750 MALE  2007-11-11
 2 Adelie Pengu… Torge…     39.5     17.4         186      3800 FEMA… 2007-11-11
 3 Adelie Pengu… Torge…     40.3     18           195      3250 FEMA… 2007-11-16
 4 Adelie Pengu… Torge…     NA       NA            NA        NA <NA>  2007-11-16
 5 Adelie Pengu… Torge…     36.7     19.3         193      3450 FEMA… 2007-11-16
 6 Adelie Pengu… Torge…     39.3     20.6         190      3650 MALE  2007-11-16
 7 Adelie Pengu… Torge…     38.9     17.8         181      3625 FEMA… 2007-11-15
 8 Adelie Pengu… Torge…     39.2     19.6         195      4675 MALE  2007-11-15
 9 Adelie Pengu… Torge…     34.1     18.1         193      3475 <NA>  2007-11-09
10 Adelie Pengu… Torge…     42       20.2         190      4250 <NA>  2007-11-09
# ℹ 334 more rows
…
Gördüğünüz yıl vektöründen ay ve günü silmemiz gerekiyor. Bunu tarihle oynayarak da yapabiliriz, karakter vektörüne çevirip, yıldan sonrasını silerek de. Normal şartlarda ikincisi daha kolay olabilir ama şu an hâlihazırda verimiz Date tipinde olduğu için direkt yılı seçebiliriz. Tarihlerle uğraşmak ilk başlayanlar için biraz zor olabilir. format() fonksiyonunu kullanacağız, "%Y" ile yılı seçeceğiz. Onu da değiştirdiğimiz sütuna tekrardan atayacağız.

Bunun için mutate() fonksiyonunu kullanacağız.

dat |> mutate(year=format(year, "%Y"))

# A tibble: 344 × 8
   species            island bill_len bill_dep flipper_len body_mass sex   year 
   <chr>              <chr>     <dbl>    <dbl>       <dbl>     <dbl> <chr> <chr>
 1 Adelie Penguin (P… Torge…     39.1     18.7         181      3750 MALE  2007 
 2 Adelie Penguin (P… Torge…     39.5     17.4         186      3800 FEMA… 2007 
 3 Adelie Penguin (P… Torge…     40.3     18           195      3250 FEMA… 2007 
 4 Adelie Penguin (P… Torge…     NA       NA            NA        NA <NA>  2007 
 5 Adelie Penguin (P… Torge…     36.7     19.3         193      3450 FEMA… 2007 
 6 Adelie Penguin (P… Torge…     39.3     20.6         190      3650 MALE  2007 
 7 Adelie Penguin (P… Torge…     38.9     17.8         181      3625 FEMA… 2007 
 8 Adelie Penguin (P… Torge…     39.2     19.6         195      4675 MALE  2007 
 9 Adelie Penguin (P… Torge…     34.1     18.1         193      3475 <NA>  2007 
10 Adelie Penguin (P… Torge…     42       20.2         190      4250 <NA>  2007 
# ℹ 334 more rows

Gördüğünüz gibi yıllar tamam! Sırada diğer değişkenler var.

İlk olarak tür isimlerini kısaltmamız lazım. En zor işlerden birisi bu! Özellikle de ilk başlayanlar için. sub() ve gsub() fonksiyonu, karakter vektöründeki seçtiğimiz kısmı, istediğimiz karakterle değiştirir. sub() sadece ilk esleşmeyi değiştirdiği için onu kullanacağız. " .*" ile boşluk sonrasındaki tüm karakterleri seçiyoruz ve "" ile replace ediyoruz. Yani siliyoruz. Çünkü "" içinde hiçbir şey yok. Bu da bize tür isimlerinin boşluktan önceki kısmını veriyor tıpkı penguins verisinde olduğu gibi.

Bir önceki kod bloğunda yıl değişkenini düzenlemiş ama herhangi bir nesneye atamamıştık. Şimdi tüm işlemleri bir arada yapalım.

dat <- dat |> 
    mutate(year=format(year, "%Y"), 
           species=sub(" .*", "", species), 
           sex=tolower(sex))
dat

# A tibble: 344 × 8
   species island    bill_len bill_dep flipper_len body_mass sex    year 
   <chr>   <chr>        <dbl>    <dbl>       <dbl>     <dbl> <chr>  <chr>
 1 Adelie  Torgersen     39.1     18.7         181      3750 male   2007 
 2 Adelie  Torgersen     39.5     17.4         186      3800 female 2007 
 3 Adelie  Torgersen     40.3     18           195      3250 female 2007 
 4 Adelie  Torgersen     NA       NA            NA        NA <NA>   2007 
 5 Adelie  Torgersen     36.7     19.3         193      3450 female 2007 
 6 Adelie  Torgersen     39.3     20.6         190      3650 male   2007 
 7 Adelie  Torgersen     38.9     17.8         181      3625 female 2007 
 8 Adelie  Torgersen     39.2     19.6         195      4675 male   2007 
 9 Adelie  Torgersen     34.1     18.1         193      3475 <NA>   2007 
10 Adelie  Torgersen     42       20.2         190      4250 <NA>   2007 
# ℹ 334 more rows
…
# A tibble: 5 × 8
  species island bill_len bill_dep flipper_len body_mass sex    year
  <fct>   <fct>     <dbl>    <dbl>       <int>     <int> <fct> <int>
1 Gentoo  Biscoe     44.5     14.3         216      4100 <NA>   2007
2 Gentoo  Biscoe     46.2     14.4         214      4650 <NA>   2008
3 Gentoo  Biscoe     47.3     13.8         216      4725 <NA>   2009
4 Gentoo  Biscoe     44.5     15.7         217      4875 <NA>   2009
5 Gentoo  Biscoe     NA       NA            NA        NA <NA>   2009

NA değerleri seçmiş olduk ancak biz NA değerleri seçmek değil, silmek istiyorduk. Burada ! operatörünü kullanacağız. Bu operatörümüz, bize “o” olmayan sonucu döndürecek.

pengBiscoe <- pengBiscoe |> filter(!is.na(sex))
pengBiscoe

# A tibble: 163 × 8
   species island bill_len bill_dep flipper_len body_mass sex     year
   <fct>   <fct>     <dbl>    <dbl>       <int>     <int> <fct>  <int>
 1 Adelie  Biscoe     37.8     18.3         174      3400 female  2007
 2 Adelie  Biscoe     37.7     18.7         180      3600 male    2007
 3 Adelie  Biscoe     35.9     19.2         189      3800 female  2007
 4 Adelie  Biscoe     38.2     18.1         185      3950 male    2007
 5 Adelie  Biscoe     38.8     17.2         180      3800 male    2007
 6 Adelie  Biscoe     35.3     18.9         187      3800 female  2007
 7 Adelie  Biscoe     40.6     18.6         183      3550 male    2007
 8 Adelie  Biscoe     40.5     17.9         187      3200 female  2007
 9 Adelie  Biscoe     37.9     18.6         172      3150 female  2007
10 Adelie  Biscoe     40.5     18.9         180      3950 male    2007
# ℹ 153 more rows

Bu işlemi dplyr 1.2.0 versiyonu ile gelen filter_out() fonksiyonuyla da yapabiliriz.

pengBiscoe |> filter_out(is.na(sex))

# A tibble: 163 × 8
   species island bill_len bill_dep flipper_len body_mass sex     year
   <fct>   <fct>     <dbl>    <dbl>       <int>     <int> <fct>  <int>
 1 Adelie  Biscoe     37.8     18.3         174      3400 female  2007
 2 Adelie  Biscoe     37.7     18.7         180      3600 male    2007
 3 Adelie  Biscoe     35.9     19.2         189      3800 female  2007
 4 Adelie  Biscoe     38.2     18.1         185      3950 male    2007
 5 Adelie  Biscoe     38.8     17.2         180      3800 male    2007
 6 Adelie  Biscoe     35.3     18.9         187      3800 female  2007
 7 Adelie  Biscoe     40.6     18.6         183      3550 male    2007
 8 Adelie  Biscoe     40.5     17.9         187      3200 female  2007
 9 Adelie  Biscoe     37.9     18.6         172      3150 female  2007
10 Adelie  Biscoe     40.5     18.9         180      3950 male    2007
# ℹ 153 more rows
…
Grafik, filtrelediğimiz değerleri daha iyi görmenizi sağlamıştır diye düşünüyorum.

Şimdi de tekrardan pengBiscoe verisini kullanarak 2008 ve 2009 yıllarındaki verileri filtreleyelim. Bunun için yine birden fazla yol var ancak biz bu sefer %in% operatörünü kullanacağız. R’da %in% operatörü, birden fazla değerle filtreleme yapıldığında kullanılıyor.

pengBiscoe |> filter(year %in% c(2008, 2009))

# A tibble: 120 × 8
   species island bill_len bill_dep flipper_len body_mass sex     year
   <fct>   <fct>     <dbl>    <dbl>       <int>     <int> <fct>  <int>
 1 Adelie  Biscoe     39.6     17.7         186      3500 female  2008
 2 Adelie  Biscoe     40.1     18.9         188      4300 male    2008
 3 Adelie  Biscoe     35       17.9         190      3450 female  2008
 4 Adelie  Biscoe     42       19.5         200      4050 male    2008
 5 Adelie  Biscoe     34.5     18.1         187      2900 female  2008
 6 Adelie  Biscoe     41.4     18.6         191      3700 male    2008
 7 Adelie  Biscoe     39       17.5         186      3550 female  2008
 8 Adelie  Biscoe     40.6     18.8         193      3800 male    2008
 9 Adelie  Biscoe     36.5     16.6         181      2850 female  2008
10 Adelie  Biscoe     37.6     19.1         194      3750 male    2008
# ℹ 110 more rows

Bu iş de tamam!

Sırada bir başka satır işlemi olan sıralama var.

Mesela filtrelemeden önceki verimiz olan dat verisinin bill_len sütunuyla arrange() fonksiyonunu kullanalım.

dat |> arrange(bill_len)

# A tibble: 344 × 8
   species island    bill_len bill_dep flipper_len body_mass sex     year
   <fct>   <fct>        <dbl>    <dbl>       <int>     <int> <fct>  <int>
 1 Adelie  Dream         32.1     15.5         188      3050 female  2009
 2 Adelie  Dream         33.1     16.1         178      2900 female  2008
 3 Adelie  Torgersen     33.5     19           190      3600 female  2008
 4 Adelie  Dream         34       17.1         185      3400 female  2008
 5 Adelie  Torgersen     34.1     18.1         193      3475 <NA>    2007
 6 Adelie  Torgersen     34.4     18.4         184      3325 female  2007
 7 Adelie  Biscoe        34.5     18.1         187      2900 female  2008
 8 Adelie  Torgersen     34.6     21.1         198      4400 male    2007
 9 Adelie  Torgersen     34.6     17.2         189      3200 female  2008
10 Adelie  Biscoe        35       17.9         190      3450 female  2008
# ℹ 334 more rows

Eğer azalan bir sıralama istiyorsak değişkeni desc() fonksiyonu içinde yazmalı ya da değişkenin başına - eklemeliyiz.

dat |> arrange(desc(bill_len))

# A tibble: 344 × 8
   species   island bill_len bill_dep flipper_len body_mass sex     year
   <fct>     <fct>     <dbl>    <dbl>       <int>     <int> <fct>  <int>
 1 Gentoo    Biscoe     59.6     17           230      6050 male    2007
 2 Chinstrap Dream      58       17.8         181      3700 female  2007
 3 Gentoo    Biscoe     55.9     17           228      5600 male    2009
 4 Chinstrap Dream      55.8     19.8         207      4000 male    2009
 5 Gentoo    Biscoe     55.1     16           230      5850 male    2009
 6 Gentoo    Biscoe     54.3     15.7         231      5650 male    2008
 7 Chinstrap Dream      54.2     20.8         201      4300 male    2008
 8 Chinstrap Dream      53.5     19.9         205      4500 male    2008
 9 Gentoo    Biscoe     53.4     15.8         219      5500 male    2009
10 Chinstrap Dream      52.8     20           205      4550 male    2008
# ℹ 334 more rows

dat |> arrange(-bill_len)

# A tibble: 344 × 8
   species   island bill_len bill_dep flipper_len body_mass sex     year
   <fct>     <fct>     <dbl>    <dbl>       <int>     <int> <fct>  <int>
 1 Gentoo    Biscoe     59.6     17           230      6050 male    2007
 2 Chinstrap Dream      58       17.8         181      3700 female  2007
 3 Gentoo    Biscoe     55.9     17           228      5600 male    2009
 4 Chinstrap Dream      55.8     19.8         207      4000 male    2009
 5 Gentoo    Biscoe     55.1     16           230      5850 male    2009
 6 Gentoo    Biscoe     54.3     15.7         231      5650 male    2008
 7 Chinstrap Dream      54.2     20.8         201      4300 male    2008
 8 Chinstrap Dream      53.5     19.9         205      4500 male    2008
 9 Gentoo    Biscoe     53.4     15.8         219      5500 male    2009
10 Chinstrap Dream      52.8     20           205      4550 male    2008
# ℹ 334 more rows

Gördüğünüz gibi büyükten küçüğe bir şekilde sıraladık.

Çoğu zaman sıralamaları birden fazla değişkenle yapmak isteyebiliriz. Bu durumda da diğer değişken isimlerini eklememiz gerekiyor.

Öncelikle yıla göre, sonrasında da gaga uzunluğuna göre büyükten küçüğe sıralayalım.

dat |> arrange(-year, -bill_len)

# A tibble: 344 × 8
   species   island bill_len bill_dep flipper_len body_mass sex    year
   <fct>     <fct>     <dbl>    <dbl>       <int>     <int> <fct> <int>
 1 Gentoo    Biscoe     55.9     17           228      5600 male   2009
 2 Chinstrap Dream      55.8     19.8         207      4000 male   2009
 3 Gentoo    Biscoe     55.1     16           230      5850 male   2009
 4 Gentoo    Biscoe     53.4     15.8         219      5500 male   2009
 5 Gentoo    Biscoe     52.5     15.6         221      5450 male   2009
 6 Gentoo    Biscoe     52.2     17.1         228      5400 male   2009
 7 Chinstrap Dream      52.2     18.8         197      3450 male   2009
 8 Gentoo    Biscoe     52.1     17           230      5550 male   2009
 9 Chinstrap Dream      51.9     19.5         206      3950 male   2009
10 Gentoo    Biscoe     51.5     16.3         230      5500 male   2009
# ℹ 334 more rows
…
